{
  "name": "app",
  "version": "0.0.1",
  "private": true,
  "scripts": {
    "android": "react-native run-android",
    "ios": "react-native run-ios",
    "start": "react-native start",
    "test": "jest",
    "lint": "eslint ."
  },
  "dependencies": {
    "@react-native-community/async-storage": "^1.12.0",
    "@react-native-community/geolocation": "^2.0.2",
    "@react-native-community/masked-view": "^0.1.10",
    "@react-navigation/bottom-tabs": "^5.8.0",
    "@react-navigation/native": "^5.7.3",
    "@react-navigation/stack": "^5.9.0",
    "npm": "^7.19.0",
    "react": "16.13.1",
    "react-native": "0.63",
    "react-native-gesture-handler": "^1.7.0",
    "react-native-permissions": "^2.2.0",
    "react-native-reanimated": "^1.13.0",
    "react-native-safe-area-context": "^3.1.7",
    "react-native-screens": "^2.10.1",
    "react-native-svg": "^12.1.0",
    "react-native-svg-transformer": "^0.14.3",
    "react-native-swiper": "^1.6.0",
    "styled-components": "^5.1.1"
  },
  "devDependencies": {
    "@babel/core": "^7.8.4",
    "@babel/runtime": "^7.8.4",
    "@react-native-community/eslint-config": "^1.1.0",
    "babel-jest": "^25.1.0",
    "eslint": "^6.5.1",
    "jest": "^25.1.0",
    "metro-react-native-babel-preset": "^0.59.0",
    "react-test-renderer": "16.13.1"
  },
  "jest": {
    "preset": "react-native"
  }
}
